{
    "channels": [
        {
            "name": "NHK World", 
            "logo": "https://gitlab.com/skpotti/chs/raw/master/logo/nhk-world.png",
            "group":"Japan",
            "url": "https://b-nhkwlive-xjp.akamaized.net/hls/live/2003458-b/nhkwlive-xjp/index_1180.m3u8"
        },
          
           {
            "name": "Arise News", 
            "logo": "https://gitlab.com/skpotti/chs/raw/master/logo/arise-news.png",
            "group":"UK",
            "url": "http://contributionstreams.ashttp9.visionip.tv/live/visiontv-contributionstreams-arise-tv-hsslive-25f-16x9-SD/chunklist.m3u8"
        },
           {
            "name": "Newsmax", 
            "logo": "https://pbs.twimg.com/profile_images/876909212957278209/u55NMUXN_400x400.jpg",
            "group":"US",
            "url": " https://nmxlive.akamaized.net/hls/live/529965/Live_1/index.m3u8"
        },
       
      
                {
            "name": "TRT World", 
            "logo": "https://gitlab.com/skpotti/chs/raw/master/logo/trt-world.png",
            "group":"Turkey",
            "url": "http://trtcanlitv-lh.akamaihd.net/i/TRTWORLD_1@321783/index_1080p_av-b.m3u8"
        },
         {
            "name": "Arirang", 
            "logo": "https://gitlab.com/skpotti/chs/raw/master/logo/arirang.png",
            "group":"Korea",
            "url": "http://amdlive-ch01.ctnd.com.edgesuite.net/arirang_1ch/smil:arirang_1ch.smil/playlist.m3u8"
        },
           
                {
            "name": "CBS News", 
            "logo": "https://gitlab.com/skpotti/chs/raw/master/logo/cbs-news.png",
            "group":"USA",
            "url": "https://abclive2-lh.akamaihd.net/i/abc_live11@423404/master.m3u8"
        },
          {
            "name": "Weather Channel", 
            "logo": "https://gitlab.com/skpotti/chs/raw/master/logo/weather-channel.png",
            "group":"USA",
            "url": "http://weather-lh.akamaihd.net/i/twc_1@92006/master.m3u8"
        },
       
          {
            "name": "Bloomberg", 
            "logo": "https://gitlab.com/skpotti/chs/raw/master/logo/bloomberg.png",
            "group":"USA",
            "url": "https://liveproduseast.global.ssl.fastly.net/btv/desktop/us_live.m3u8"
        },
          {
            "name": "CBNC", 
            "logo": "https://gitlab.com/skpotti/chs/raw/master/logo/cnbc.png",
            "group":"USA",
            "url": "https://1674331492.rsc.cdn77.org/LS-ATL-54548-14/index.m3u8"
        },
           {
            "name": "FOX Business Network", 
            "logo": "https://gitlab.com/skpotti/chs/raw/master/logo/fox.png",
            "group":"USA",
            "url": "https://1329918864.rsc.cdn77.org/ls-54548-1/index.m3u8"
        },
         
           {
            "name": "NEW SY", 
            "logo": "https://gitlab.com/skpotti/chs/raw/master/logo/newsy.png",
            "group":"USA",
            "url": "https://content.uplynk.com/channel/4bb4901b934c4e029fd4c1abfc766c37.m3u8"
        },
           {
            "name": "NBC", 
            "logo": "https://gitlab.com/skpotti/chs/raw/master/logo/nbc.png",
            "group":"USA",
            "url": "http://161.0.157.51/PLTV/88888888/224/3221227040/index.m3u8"
        },
         {
            "name": "HBO 2", 
            "logo": "https://gitlab.com/skpotti/chs/raw/master/logo/hbo2.png",
            "group":"USA",
            "url": "http://161.0.157.5/PLTV/88888888/224/3221227026/01.m3u8"
        },
           {
            "name": "Channel NewsAsia", 
            "logo": "https://gitlab.com/skpotti/chs/raw/master/logo/channel-newsasia.png",
            "group":"Singapore",
            "url": "http://210.210.155.35/uq2663/h/h29/01.m3u8"
        },
          {
            "name": "France 24", 
            "logo": "https://gitlab.com/skpotti/chs/raw/master/logo/france24.png",
            "group":"France",
            "url": "http://f24hls-i.akamaihd.net/hls/live/221193/F24_EN_LO_HLS/master_900.m3u8"
        },
       
        {
            "name": "TVB财经台", 
            "logo": "https://raw.githubusercontent.com/m3u8playlist/tvlogo/master/tv/hk/TVB-Finance.png",
            "group":"HongKong",
            "url": "http://e1.vdowowza.vip.hk1.tvb.com/tvblive/smil:mobilehd_financeintl.smil/chunklist.m3u8"
        },
        {
            "name": "香港31台", 
            "logo": "https://raw.githubusercontent.com/m3u8playlist/tvlogo/master/tv/hk/rhk31.png",
            "group":"HongKong",
            "url": "http://rthklive1-lh.akamaihd.net/i/rthk31_1@167495/index_2052_av-b.m3u8"
        },
        {
            "name": "香港32台", 
            "logo": "https://raw.githubusercontent.com/m3u8playlist/tvlogo/master/tv/hk/rhk32.png",
            "group":"HongKong",
            "url": "http://rthklive2-lh.akamaihd.net/i/rthk32_1@168450/index_2052_av-b.m3u8"
        },
            {
            "name": "全纪实超清", 
            "logo": "https://gitlab.com/skpotti/chs/raw/master/logo/documentary.png",
            "group":"China",
            "url": "http://huaweicdn.hb.chinamobile.com/PLTV/2510088/224/3221225911/3.m3u8"
        },
            {
            "name": "CCTV5超清", 
            "logo": "https://gitlab.com/skpotti/chs/raw/master/logo/CCTV-5.png",
            "group":"China",
            "url": "http://huaweicdn.hb.chinamobile.com/PLTV/2510088/224/3221225904/3.m3u8"
        },
        {
            "name": "CCTV5+超清", 
            "logo": "https://gitlab.com/skpotti/chs/raw/master/logo/CCTV-5+.png",
            "group":"China",
            "url": "http://huaweicdn.hb.chinamobile.com/PLTV/2510088/224/3221225906/3.m3u8"
        }
        
        ]
}